Date;Total Readings
2013-1-1;6.571
2013-1-2;4.367
2013-1-3;23.056
2013-1-4;10.03
2013-1-5;25.06
2013-1-6;15.655
2013-1-7;8.868
2013-1-8;19.182
2013-1-9;21.262
2013-1-10;21.671
2013-1-11;12.786
2013-1-12;15.955
2013-1-13;8.288
2013-1-14;7.419
2013-1-15;13.555
2013-1-16;12.648
2013-1-17;17.517
2013-1-18;28.048
2013-1-19;10.735
2013-1-20;20.473
2013-1-21;7.931
2013-1-22;22.122
2013-1-23;16.067
2013-1-24;36.5
2013-1-25;27.898
2013-1-26;23.388
2013-1-27;23.738
2013-1-28;17.2
2013-1-29;14.961
2013-1-30;8.296
2013-1-31;12.24
2013-2-1;17.602
2013-2-2;12.924
2013-2-3;14.091
2013-2-4;16.379
2013-2-5;13.534
2013-2-6;25.82
2013-2-7;18.059
2013-2-8;20.175
2013-2-9;30.285
2013-2-10;20.231
2013-2-11;27.144
2013-2-12;18.647
2013-2-13;9.674
2013-2-14;16.837
2013-2-15;nan
2013-2-16;25.541
2013-2-17;10.443
2013-2-18;33.565
2013-2-19;17.208
2013-2-20;23.328
2013-2-21;12.727
2013-2-22;23.866
2013-2-23;16.7
2013-2-24;12.584
2013-2-25;19.614
2013-2-26;13.497
2013-2-27;11.128
2013-2-28;17.915
2013-3-1;10.728
2013-3-2;24.162
2013-3-3;30.207
2013-3-4;26.224
2013-3-5;12.632
2013-3-6;12.127
2013-3-7;22.043
2013-3-8;9.582
2013-3-9;10.421
2013-3-10;10.136
2013-3-11;6.374
2013-3-12;7.607
2013-3-13;8.049
2013-3-14;11.772
2013-3-15;18.5
2013-3-16;18.994
2013-3-17;24.566
2013-3-18;31.745
2013-3-19;5.912
2013-3-20;15.844
2013-3-21;12.801
2013-3-22;12.197
2013-3-23;20.334
2013-3-24;2.016
2013-3-25;3.05
2013-3-26;2.951
2013-3-27;2.717
2013-3-28;1.907
2013-3-29;2.041
2013-3-30;1.994
2013-3-31;2.234
2013-4-1;2.678
2013-4-2;2.422
2013-4-3;2.613
2013-4-4;19.644
2013-4-5;17.982
2013-4-6;15.198
2013-4-7;nan
2013-4-8;13.359
2013-4-9;22.65
2013-4-10;20.943
2013-4-11;16.731
2013-4-12;23.304
2013-4-13;33.996
2013-4-14;21.728
2013-4-15;12.146
2013-4-16;nan
2013-4-17;9.84
2013-4-18;20.199
2013-4-19;12.202
2013-4-20;31.278
2013-4-21;33.706
2013-4-22;18.987
2013-4-23;19.398
2013-4-24;15.043
2013-4-25;20.582
2013-4-26;31.186
2013-4-27;25.098
2013-4-28;29.244
2013-4-29;38.864
2013-4-30;14.434
2013-5-1;30.23
2013-5-2;16.627
2013-5-3;5.511
2013-5-4;6.482
2013-5-5;7.563
2013-5-6;7.488
2013-5-7;24.01
2013-5-8;20.15
2013-5-9;27.541
2013-5-10;14.143
2013-5-11;25.204
2013-5-12;20.911
2013-5-13;20.655
2013-5-14;12.212
2013-5-15;22.458
2013-5-16;22.248
2013-5-17;14.57
2013-5-18;34.167
2013-5-19;20.836
2013-5-20;42.239
2013-5-21;32.804
2013-5-22;18.437
2013-5-23;29.906
2013-5-24;29.347
2013-5-25;27.354
2013-5-26;14.788
2013-5-27;15.505
2013-5-28;39.982
2013-5-29;22.137
2013-5-30;35.458
2013-5-31;32.245
2013-6-1;20.392
2013-6-2;21.791
2013-6-3;48.904
2013-6-4;21.098
2013-6-5;22.228
2013-6-6;21.293
2013-6-7;33.141
2013-6-8;34.685
2013-6-9;17.069
2013-6-10;30.562
2013-6-11;41.072
2013-6-12;29.428
2013-6-13;15.811
2013-6-14;32.305
2013-6-15;13.188
2013-6-16;25.669
2013-6-17;39.545
2013-6-18;26.483
2013-6-19;38.834
2013-6-20;24.761
2013-6-21;41.095
2013-6-22;26.411
2013-6-23;28.565
2013-6-24;30.61
2013-6-25;37.833
2013-6-26;18.704
2013-6-27;32.117
2013-6-28;54.376
2013-6-29;53.121
2013-6-30;18.013
2013-7-1;29.887
2013-7-2;23.524
2013-7-3;34.086
2013-7-4;12.696
2013-7-5;41.921
2013-7-6;21.468
2013-7-7;30.602
2013-7-8;23.812
2013-7-9;43.651
2013-7-10;17.787
2013-7-11;16.408
2013-7-12;16.738
2013-7-13;19.756
2013-7-14;12.743
2013-7-15;9.343
2013-7-16;9.735
2013-7-17;10.323
2013-7-18;21.645
2013-7-19;41.005
2013-7-20;12.288
2013-7-21;25.312
2013-7-22;31.033
2013-7-23;18.708
2013-7-24;25.173
2013-7-25;39.908
2013-7-26;22.611
2013-7-27;13.653
2013-7-28;17.245
2013-7-29;33.786
2013-7-30;34.625
2013-7-31;nan
2013-8-1;26.279
2013-8-2;31.54
2013-8-3;24.136
2013-8-4;18.403
2013-8-5;16.424
2013-8-6;38.152
2013-8-7;25.46
2013-8-8;38.009
2013-8-9;40.993
2013-8-10;34.872
2013-8-11;26.524
2013-8-12;38.373
2013-8-13;32.195
2013-8-14;21.954
2013-8-15;44.237
2013-8-16;22.67
2013-8-17;15.013
2013-8-18;27.606
2013-8-19;26.598
2013-8-20;37.417
2013-8-21;31.249
2013-8-22;nan
2013-8-23;15.641
2013-8-24;14.615
2013-8-25;16.24
2013-8-26;31.176
2013-8-27;17.75
2013-8-28;41.82
2013-8-29;36.546
2013-8-30;41.126
2013-8-31;nan
2013-9-1;nan
2013-9-2;29.079
2013-9-3;38.425
2013-9-4;33.794
2013-9-5;32.212
2013-9-6;37.935
2013-9-7;15.455
2013-9-8;27.785
2013-9-9;22.361
2013-9-10;20.94
2013-9-11;38.186
2013-9-12;24.453
2013-9-13;25.925
2013-9-14;34.178
2013-9-15;33.702
2013-9-16;28.515
2013-9-17;19.652
2013-9-18;27.229
2013-9-19;32.263
2013-9-20;34.273
2013-9-21;19.419
2013-9-22;30.695
2013-9-23;26.953
2013-9-24;21.613
2013-9-25;nan
2013-9-26;15.909
2013-9-27;44.189
2013-9-28;26.668
2013-9-29;23.782
2013-9-30;17.408
2013-10-1;27.205
2013-10-2;26.688
2013-10-3;nan
2013-10-4;22.969
2013-10-5;23.054
2013-10-6;31.474
2013-10-7;13.95
2013-10-8;11.5
2013-10-9;9.675
2013-10-10;16.162
2013-10-11;20.609
2013-10-12;20.089
2013-10-13;39.927
2013-10-14;13.338
2013-10-15;30.239
2013-10-16;21.872
2013-10-17;19.554
2013-10-18;31.446
2013-10-19;15.906
2013-10-20;21.927
2013-10-21;21.271
2013-10-22;26.049
2013-10-23;7.567
2013-10-24;14.004
2013-10-25;13.515
2013-10-26;19.306
2013-10-27;6.246
2013-10-28;20.987
2013-10-29;16.51
2013-10-30;19.89
2013-10-31;nan
2013-11-1;11.373
2013-11-2;nan
2013-11-3;25.195
2013-11-4;14.913
2013-11-5;17.163
2013-11-6;26.841
2013-11-7;14.545
2013-11-8;16.874
2013-11-9;10.993
2013-11-10;4.472
2013-11-11;11.761
2013-11-12;19.346
2013-11-13;19.69
2013-11-14;8.266
2013-11-15;29.171
2013-11-16;17.888
2013-11-17;28.405
2013-11-18;17.612
2013-11-19;7.578
2013-11-20;8.303
2013-11-21;22.029
2013-11-22;14.823
2013-11-23;17.553
2013-11-24;20.01
2013-11-25;31.417
2013-11-26;26.185
2013-11-27;32.029
2013-11-28;11.319
2013-11-29;5.129
2013-11-30;9.304
2013-12-1;nan
2013-12-2;10.677
2013-12-3;4.32
2013-12-4;11.589
2013-12-5;10.375
2013-12-6;6.393
2013-12-7;7.334
2013-12-8;26.767
2013-12-9;32.736
2013-12-10;22.117
2013-12-11;14.787
2013-12-12;16.591
2013-12-13;17.012
2013-12-14;19.81
2013-12-15;13.383
2013-12-16;nan
2013-12-17;22.931
2013-12-18;11.962
2013-12-19;10.021
2013-12-20;21.001
2013-12-21;26.182
2013-12-22;23.508
2013-12-23;25.011
2013-12-24;17.731
2013-12-25;18.642
2013-12-26;22.179
2013-12-27;11.634
2013-12-28;9.379
2013-12-29;25.529
2013-12-30;20.048
2013-12-31;4.134
